<**>
username::admin
password::insecure
ID::0
<**>
username::HectorIX
password::strongPass
ID::1
<**>
username::RandomGuy
password::c90d0a99218c5fbf3d9abc26a6e51b13c0b1fa41069b780b6bd8838ef7447fc90b5bd7211d177cebf10629c18f2a0f0dcbc1c6d2507669b9fff360739bdcb051
ID::2
<**>
username::blabla
password::e816bef534862b92a05fced667f74946591c4d827cd34c14e802c07a877b776528455935b21e91d7443e86866496295ccc7e1cd626e673f9a463a229e55f8896
ID::3
<**>
username::Giorgos
password::5a5184e88d3004bab188709419a787c4e9f88f61441c848fd325c34e15cf071bb73b3c02d0b0a1f7f2121d918e7d4f7dbb9a1ec8a183060c67fddd09e9899c44
e-mail::giorgoschiotis@yandex.com
ID::4
